FRS Dementia Study
…
Rename some of the variables. Notice that I am replacing the old dementia_data data.

dementia_data <- 
  dementia_data %>% 
  dplyr::rename(
          Recorded_Date = 'ach_date',
          Organization_Code  = 'COMMISSIONER_ORGANISATION_CODE',
          Clinical_Commisioning_Groups  = 'CCG_NAME',
          Race  = 'Measure',
          Dementia_Rate_Indicator   = 'Value'
          )
dementia_data

## # A tibble: 11,700 x 6
##    Recorded_Date Organization_Co GEOGRAPHY_CODE Clinical_Commis Race 
##    <chr>         <chr>            <chr>          <chr>            <chr>
##  1 30Apr2018     00C              E38000042      NHS Darlington  ASIA
##  2 30Apr2018     00C              E38000042      NHS Darlington  BLAC
##  3 30Apr2018     00C              E38000042      NHS Darlington  MIXE
##  4 30Apr2018     00C              E38000042      NHS Darlington  NOT_
##  5 30Apr2018     00C              E38000042      NHS Darlington  OTHE
##  6 30Apr2018     00C              E38000042      NHS Darlington  WHITE
##  7 30Apr2018     00D              E38000047      NHS Durham Dale ASIA
##  8 30Apr2018     00D              E38000047      NHS Durham Dale BLAC
##  9 30Apr2018     00D              E38000047      NHS Durham Dale MIXE
## 10 30Apr2018     00D              E38000047      NHS Durham Dale NOT_
## #  with 11,690 more rows, and 1 more variable:
## #   Dementia_Rate_Indicator <dbl>
…
## From this line of code, we see that each Race has 1950 observations

Rename the data values for Race so that the names are not so long (long names may cause problems in later lines of code, especially when trying to make plots)

dementia_data<- dementia_data %>% 
  separate(Race, into= c("Race","Race2","Race3","Race4","Race5","Race6","Race7", "Race8" ), sep = "_") %>% 
  select(-Race2, -Race3,-Race4,-Race5,-Race6, -Race7,-Race8)

## Warning: Expected 8 pieces. Missing pieces filled with `NA` in 9750 rows
## [1, 3, 4, 5, 6, 7, 9, 10, 11, 12, 13, 15, 16, 17, 18, 19, 21, 22, 23,
## 24, ...].

dementia_data

## # A tibble: 11,700 x 6
##    Recorded_Date Organization_Co GEOGRAPHY_CODE Clinical_Commis Race 
##    <chr>         <chr>            <chr>          <chr>            <chr>
##  1 30Apr2018     00C              E38000042      NHS Darlington  ASIAN
##  2 30Apr2018     00C              E38000042      NHS Darlington  BLACK
##  3 30Apr2018     00C              E38000042      NHS Darlington  MIXED
##  4 30Apr2018     00C              E38000042      NHS Darlington  NOT  
##  5 30Apr2018     00C              E38000042      NHS Darlington  OTHER
##  6 30Apr2018     00C              E38000042      NHS Darlington  WHITE
##  7 30Apr2018     00D              E38000047      NHS Durham Dale ASIAN
##  8 30Apr2018     00D              E38000047      NHS Durham Dale BLACK
##  9 30Apr2018     00D              E38000047      NHS Durham Dale MIXED
## 10 30Apr2018     00D              E38000047      NHS Durham Dale NOT  
## #  with 11,690 more rows, and 1 more variable:
## #   Dementia_Rate_Indicator <dbl>

##Please not that "NOT" means not defined

Mutate the Dementia_data set to not include the "NOT" (NOT DEFINED) since it is not contributing to our results dealing with specific Races.

dementia_data<- dementia_data %>% 
  filter(Race!= "NOT")
dementia_data

## # A tibble: 9,750 x 6
##    Recorded_Date Organization_Co GEOGRAPHY_CODE Clinical_Commis Race 
##    <chr>         <chr>            <chr>          <chr>            <chr>
##  1 30Apr2018     00C              E38000042      NHS Darlington  ASIAN
##  2 30Apr2018     00C              E38000042      NHS Darlington  BLACK
##  3 30Apr2018     00C              E38000042      NHS Darlington  MIXED
##  4 30Apr2018     00C              E38000042      NHS Darlington  OTHER
##  5 30Apr2018     00C              E38000042      NHS Darlington  WHITE
##  6 30Apr2018     00D              E38000047      NHS Durham Dale ASIAN
##  7 30Apr2018     00D              E38000047      NHS Durham Dale BLACK
##  8 30Apr2018     00D              E38000047      NHS Durham Dale MIXED
##  9 30Apr2018     00D              E38000047      NHS Durham Dale OTHER
## 10 30Apr2018     00D              E38000047      NHS Durham Dale WHITE
## #  with 9,740 more rows, and 1 more variable:
## #   Dementia_Rate_Indicator <dbl>

Rearrange the data table to show decreasing order of Dementia Indicator. This will be a good indicator as to the highest race coming into clinics with Dementia diagnoses

dementia_data <-dementia_data %>%
  arrange(desc(Dementia_Rate_Indicator))
dementia_data

## # A tibble: 9,750 x 6
##    Recorded_Date Organization_Co GEOGRAPHY_CODE Clinical_Commis Race 
##    <chr>         <chr>            <chr>          <chr>            <chr>
##  1 31Jan2019     15F              E38000225      NHS Leeds CCG    WHITE
##  2 31Dec2018     15F              E38000225      NHS Leeds CCG    WHITE
##  3 30Nov2018     15F              E38000225      NHS Leeds CCG    WHITE
##  4 31Oct2018     15F              E38000225      NHS Leeds CCG    WHITE
##  5 30Sep2018     15F              E38000225      NHS Leeds CCG    WHITE
##  6 31Aug2018     15F              E38000225      NHS Leeds CCG    WHITE
##  7 31Jul2018     15F              E38000225      NHS Leeds CCG    WHITE
##  8 30Jun2018     15F              E38000225      NHS Leeds CCG    WHITE
##  9 31May2018     15F              E38000225      NHS Leeds CCG    WHITE
## 10 30Apr2018     15F              E38000225      NHS Leeds CCG    WHITE
## #  with 9,740 more rows, and 1 more variable:
## #   Dementia_Rate_Indicator <dbl>
…
Find the Clincal Commisioning Group where the Dementia_Rate_Indicator is highest for each Race. Use this information to find geographical location where dementia is prevalent for that specific Race.

dementia_data %>% 
  group_by(Clinical_Commisioning_Groups) %>% 
  summarize(total= sum(Dementia_Rate_Indicator)) %>% 
  arrange(desc(total)) 

## # A tibble: 195 x 2
##    Clinical_Commisioning_Groups            total
##    <chr>                                   <dbl>
##  1 NHS Leeds CCG                           30913
##  2 NHS Birmingham and Solihull CCG         30070
##  3 NHS Mid Essex CCG                       22063
##  4 NHS Bedfordshire CCG                    21770
##  5 NHS Leicester City CCG                  20156
##  6 NHS Nene CCG                            19672
##  7 NHS West Leicestershire CCG             19443
##  8 NHS Sheffield CCG                       18965
##  9 NHS East and North Hertfordshire CCG    18891
## 10 NHS Cambridgeshire and Peterborough CCG 18449
## #  with 185 more rows

## total represents number of people who have come into each specific clinic

Making the plot showing the basic race data for the top 5 clinical commisioning groups with the most amount of clinic visits

CCG_data <- dementia_data %>% 
  select (Clinical_Commisioning_Groups, Race, Dementia_Rate_Indicator) %>% 
  filter(Clinical_Commisioning_Groups=="NHS Leeds CCG"| Clinical_Commisioning_Groups=="NHS Birmingham and Solihull CCG"| Clinical_Commisioning_Groups=="NHS Mid Essex CCG"| Clinical_Commisioning_Groups=="NHS Bedfordshire CCG" | Clinical_Commisioning_Groups=="NHS Leicester City CCG")
CCG_data

## # A tibble: 250 x 3
##    Clinical_Commisioning_Groups Race  Dementia_Rate_Indicator
##    <chr>                        <chr>                   <dbl>
##  1 NHS Leeds CCG                WHITE                    3117
##  2 NHS Leeds CCG                WHITE                    3095
##  3 NHS Leeds CCG                WHITE                    3077
##  4 NHS Leeds CCG                WHITE                    3027
##  5 NHS Leeds CCG                WHITE                    2942
##  6 NHS Leeds CCG                WHITE                    2787
##  7 NHS Leeds CCG                WHITE                    2755
##  8 NHS Leeds CCG                WHITE                    2695
##  9 NHS Leeds CCG                WHITE                    2638
## 10 NHS Leeds CCG                WHITE                    2585
## #  with 240 more rows
…
general_data<- dementia_data %>% 
  select(Organization_Code, GEOGRAPHY_CODE,Clinical_Commisioning_Groups, Race, Dementia_Rate_Indicator)
general_data

## # A tibble: 9,750 x 5
##    Organization_Code GEOGRAPHY_CODE Clinical_Commis Race  Dementia_Rate_I
##    <chr>             <chr>          <chr>            <chr>            <dbl>
##  1 15F               E38000225      NHS Leeds CCG    WHITE             3117
##  2 15F               E38000225      NHS Leeds CCG    WHITE             3095
##  3 15F               E38000225      NHS Leeds CCG    WHITE             3077
##  4 15F               E38000225      NHS Leeds CCG    WHITE             3027
##  5 15F               E38000225      NHS Leeds CCG    WHITE             2942
##  6 15F               E38000225      NHS Leeds CCG    WHITE             2787
##  7 15F               E38000225      NHS Leeds CCG    WHITE             2755
##  8 15F               E38000225      NHS Leeds CCG    WHITE             2695
##  9 15F               E38000225      NHS Leeds CCG    WHITE             2638
## 10 15F               E38000225      NHS Leeds CCG    WHITE             2585
## #  with 9,740 more rows
…
