…
```r
dementia_data <- 
  dementia_data %>% 
  dplyr::rename(
          Recorded_Date = 'ach_date',
          Organization_Code  = 'COMMISSIONER_ORGANISATION_CODE',
          Clinical_Commisioning_Groups  = 'CCG_NAME',
          Ethnicity  = 'Measure',
          Value   = 'Value'
          )
dementia_data
```

```
## # A tibble: 11,700 x 6
##    Recorded_Date Organization_Co… GEOGRAPHY_CODE Clinical_Commis… Ethnicity
##    <chr>         <chr>            <chr>          <chr>            <chr>    
##  1 30Apr2018     00C              E38000042      NHS Darlington … ASIAN_OR…
##  2 30Apr2018     00C              E38000042      NHS Darlington … BLACK_OR…
##  3 30Apr2018     00C              E38000042      NHS Darlington … MIXED_OR…
##  4 30Apr2018     00C              E38000042      NHS Darlington … NOT_DEFI…
##  5 30Apr2018     00C              E38000042      NHS Darlington … OTHER_ET…
##  6 30Apr2018     00C              E38000042      NHS Darlington … WHITE    
##  7 30Apr2018     00D              E38000047      NHS Durham Dale… ASIAN_OR…
##  8 30Apr2018     00D              E38000047      NHS Durham Dale… BLACK_OR…
##  9 30Apr2018     00D              E38000047      NHS Durham Dale… MIXED_OR…
## 10 30Apr2018     00D              E38000047      NHS Durham Dale… NOT_DEFI…
## # … with 11,690 more rows, and 1 more variable: Value <dbl>
```
…
## 5. Mammals have a range of life histories, including lifespan. Produce a summary of lifespan in years by order. Be sure to include the minimum, maximum, mean, standard deviation, and total n.

```r
dementia_data <-dementia_data %>%
  ## MAKE CODE TO REMOVE THE NOT_DEFINED ETHNICITY SINCE IT IS NOT TELLING US RELEVANT INFORMATION
  arrange(desc(Value))
dementia_data
```

```
## # A tibble: 11,700 x 6
##    Recorded_Date Organization_Co… GEOGRAPHY_CODE Clinical_Commis… Ethnicity
##    <chr>         <chr>            <chr>          <chr>            <chr>    
##  1 30Sep2018     99P              E38000129      NHS Northern, E… NOT_DEFI…
##  2 30Sep2018     11J              E38000045      NHS Dorset CCG   NOT_DEFI…
##  3 30Nov2018     11J              E38000045      NHS Dorset CCG   NOT_DEFI…
##  4 31Dec2018     11J              E38000045      NHS Dorset CCG   NOT_DEFI…
##  5 30Nov2018     99P              E38000129      NHS Northern, E… NOT_DEFI…
##  6 31Oct2018     11J              E38000045      NHS Dorset CCG   NOT_DEFI…
##  7 31Jan2019     11J              E38000045      NHS Dorset CCG   NOT_DEFI…
##  8 31Oct2018     99P              E38000129      NHS Northern, E… NOT_DEFI…
##  9 31Jan2019     99P              E38000129      NHS Northern, E… NOT_DEFI…
## 10 31Dec2018     99P              E38000129      NHS Northern, E… NOT_DEFI…
## # … with 11,690 more rows, and 1 more variable: Value <dbl>
```
…
