…
```r
dementia_data <- 
  dementia_data %>% 
  dplyr::rename(
          Recorded_Date = 'ach_date',
          Organization_Code  = 'COMMISSIONER_ORGANISATION_CODE',
          Clinical_Commisioning_Groups  = 'CCG_NAME',
          Race  = 'Measure',
          Dementia_Rate_Indicator   = 'Value'
          )
dementia_data
```

```
## # A tibble: 11,700 x 6
##    Recorded_Date Organization_Co… GEOGRAPHY_CODE Clinical_Commis… Race 
##    <chr>         <chr>            <chr>          <chr>            <chr>
##  1 30Apr2018     00C              E38000042      NHS Darlington … ASIA…
##  2 30Apr2018     00C              E38000042      NHS Darlington … BLAC…
##  3 30Apr2018     00C              E38000042      NHS Darlington … MIXE…
##  4 30Apr2018     00C              E38000042      NHS Darlington … NOT_…
##  5 30Apr2018     00C              E38000042      NHS Darlington … OTHE…
##  6 30Apr2018     00C              E38000042      NHS Darlington … WHITE
##  7 30Apr2018     00D              E38000047      NHS Durham Dale… ASIA…
##  8 30Apr2018     00D              E38000047      NHS Durham Dale… BLAC…
##  9 30Apr2018     00D              E38000047      NHS Durham Dale… MIXE…
## 10 30Apr2018     00D              E38000047      NHS Durham Dale… NOT_…
## # … with 11,690 more rows, and 1 more variable:
## #   Dementia_Rate_Indicator <dbl>
```
…
```r
## From this line of code, we see that each Race has 1950 observations
```

## Mutate the Dementia_data set to not include the "NOT_DEFINED" since it is not contributing to our results dealing with specific Races.

```r
dementia_data<- dementia_data %>% 
  filter(Race!= "NOT_DEFINED")
dementia_data
```

```
## # A tibble: 9,750 x 6
##    Recorded_Date Organization_Co… GEOGRAPHY_CODE Clinical_Commis… Race 
##    <chr>         <chr>            <chr>          <chr>            <chr>
##  1 30Apr2018     00C              E38000042      NHS Darlington … ASIA…
##  2 30Apr2018     00C              E38000042      NHS Darlington … BLAC…
##  3 30Apr2018     00C              E38000042      NHS Darlington … MIXE…
##  4 30Apr2018     00C              E38000042      NHS Darlington … OTHE…
##  5 30Apr2018     00C              E38000042      NHS Darlington … WHITE
##  6 30Apr2018     00D              E38000047      NHS Durham Dale… ASIA…
##  7 30Apr2018     00D              E38000047      NHS Durham Dale… BLAC…
##  8 30Apr2018     00D              E38000047      NHS Durham Dale… MIXE…
##  9 30Apr2018     00D              E38000047      NHS Durham Dale… OTHE…
## 10 30Apr2018     00D              E38000047      NHS Durham Dale… WHITE
## # … with 9,740 more rows, and 1 more variable:
## #   Dementia_Rate_Indicator <dbl>
```


## 5. Mammals have a range of life histories, including lifespan. Produce a summary of lifespan in years by order. Be sure to include the minimum, maximum, mean, standard deviation, and total n.

```r
dementia_data <-dementia_data %>%
  ## MAKE CODE TO REMOVE THE NOT_DEFINED Race SINCE IT IS NOT TELLING US RELEVANT INFORMATION
  arrange(desc(Dementia_Rate_Indicator))
dementia_data
```

```
## # A tibble: 9,750 x 6
##    Recorded_Date Organization_Co… GEOGRAPHY_CODE Clinical_Commis… Race 
##    <chr>         <chr>            <chr>          <chr>            <chr>
##  1 31Jan2019     15F              E38000225      NHS Leeds CCG    WHITE
##  2 31Dec2018     15F              E38000225      NHS Leeds CCG    WHITE
##  3 30Nov2018     15F              E38000225      NHS Leeds CCG    WHITE
##  4 31Oct2018     15F              E38000225      NHS Leeds CCG    WHITE
##  5 30Sep2018     15F              E38000225      NHS Leeds CCG    WHITE
##  6 31Aug2018     15F              E38000225      NHS Leeds CCG    WHITE
##  7 31Jul2018     15F              E38000225      NHS Leeds CCG    WHITE
##  8 30Jun2018     15F              E38000225      NHS Leeds CCG    WHITE
##  9 31May2018     15F              E38000225      NHS Leeds CCG    WHITE
## 10 30Apr2018     15F              E38000225      NHS Leeds CCG    WHITE
## # … with 9,740 more rows, and 1 more variable:
## #   Dementia_Rate_Indicator <dbl>
```
…
## Within each ethnicity-> find where their highest Dementia rate indicator is

```r
highest_dementia_rate<-dementia_data %>% 
  group_by(Race) %>% 
  select(-Recorded_Date, -Organization_Code, -GEOGRAPHY_CODE)
  ##arrange(desc(Dementia_Rate_Indicator))
highest_dementia_rate
```

```
## # A tibble: 9,750 x 3
## # Groups:   Race [5]
##    Clinical_Commisioning_Groups Race  Dementia_Rate_Indicator
##    <chr>                        <chr>                   <dbl>
##  1 NHS Leeds CCG                WHITE                    3117
##  2 NHS Leeds CCG                WHITE                    3095
##  3 NHS Leeds CCG                WHITE                    3077
##  4 NHS Leeds CCG                WHITE                    3027
##  5 NHS Leeds CCG                WHITE                    2942
##  6 NHS Leeds CCG                WHITE                    2787
##  7 NHS Leeds CCG                WHITE                    2755
##  8 NHS Leeds CCG                WHITE                    2695
##  9 NHS Leeds CCG                WHITE                    2638
## 10 NHS Leeds CCG                WHITE                    2585
## # … with 9,740 more rows
```


```r
lowest_dementia_rate<- dementia_data %>% 
  select(-Recorded_Date, -Organization_Code, -GEOGRAPHY_CODE) %>% 
  group_by(Race) %>% 
  arrange(desc(Dementia_Rate_Indicator))
lowest_dementia_rate  
```

```
## # A tibble: 9,750 x 3
## # Groups:   Race [5]
##    Clinical_Commisioning_Groups Race  Dementia_Rate_Indicator
##    <chr>                        <chr>                   <dbl>
##  1 NHS Leeds CCG                WHITE                    3117
##  2 NHS Leeds CCG                WHITE                    3095
##  3 NHS Leeds CCG                WHITE                    3077
##  4 NHS Leeds CCG                WHITE                    3027
##  5 NHS Leeds CCG                WHITE                    2942
##  6 NHS Leeds CCG                WHITE                    2787
##  7 NHS Leeds CCG                WHITE                    2755
##  8 NHS Leeds CCG                WHITE                    2695
##  9 NHS Leeds CCG                WHITE                    2638
## 10 NHS Leeds CCG                WHITE                    2585
## # … with 9,740 more rows
```
…
