…
```r
dementia_data <- 
  dementia_data %>% 
  dplyr::rename(
          Recorded_Date = 'ach_date',
          Clinical_Commisioning_Groups  = 'CCG_NAME',
          Race  = 'Measure',
          Dementia_Rate_Indicator   = 'Value',
          Organization_Code  = 'COMMISSIONER_ORGANISATION_CODE'
          )
dementia_data
```

```
## # A tibble: 11,700 x 6
##    Recorded_Date Organization_Code GEOGRAPHY_CODE Clinical_Commisioning_Groups                   Race                                           Dementia_Rate_Indicator
##    <chr>         <chr>             <chr>          <chr>                                          <chr>                                                            <dbl>
##  1 30Apr2018     00C               E38000042      NHS Darlington CCG                             ASIAN_OR_ASIAN_BRITISH                                               4
##  2 30Apr2018     00C               E38000042      NHS Darlington CCG                             BLACK_OR_AFRICAN_OR_CARIBBEAN_OR_BLACK_BRITISH                       0
##  3 30Apr2018     00C               E38000042      NHS Darlington CCG                             MIXED_OR_MULTIPLE_ETHNIC_GROUPS                                      1
##  4 30Apr2018     00C               E38000042      NHS Darlington CCG                             NOT_DEFINED                                                        466
##  5 30Apr2018     00C               E38000042      NHS Darlington CCG                             OTHER_ETHNIC_GROUP                                                   2
##  6 30Apr2018     00C               E38000042      NHS Darlington CCG                             WHITE                                                              584
##  7 30Apr2018     00D               E38000047      NHS Durham Dales, Easington and Sedgefield CCG ASIAN_OR_ASIAN_BRITISH                                               3
##  8 30Apr2018     00D               E38000047      NHS Durham Dales, Easington and Sedgefield CCG BLACK_OR_AFRICAN_OR_CARIBBEAN_OR_BLACK_BRITISH                       0
##  9 30Apr2018     00D               E38000047      NHS Durham Dales, Easington and Sedgefield CCG MIXED_OR_MULTIPLE_ETHNIC_GROUPS                                      0
## 10 30Apr2018     00D               E38000047      NHS Durham Dales, Easington and Sedgefield CCG NOT_DEFINED                                                       1405
## # … with 11,690 more rows
```
…
```
## Warning: Expected 8 pieces. Missing pieces filled with `NA` in 9750 rows [1, 3, 4, 5, 6, 7, 9, 10, 11, 12, 13, 15, 16, 17, 18, 19, 21, 22, 23, 24, ...].
```

```r
dementia_data
```

```
## # A tibble: 11,700 x 6
##    Recorded_Date Organization_Code GEOGRAPHY_CODE Clinical_Commisioning_Groups                   Race  Dementia_Rate_Indicator
##    <chr>         <chr>             <chr>          <chr>                                          <chr>                   <dbl>
##  1 30Apr2018     00C               E38000042      NHS Darlington CCG                             ASIAN                       4
##  2 30Apr2018     00C               E38000042      NHS Darlington CCG                             BLACK                       0
##  3 30Apr2018     00C               E38000042      NHS Darlington CCG                             MIXED                       1
##  4 30Apr2018     00C               E38000042      NHS Darlington CCG                             NOT                       466
##  5 30Apr2018     00C               E38000042      NHS Darlington CCG                             OTHER                       2
##  6 30Apr2018     00C               E38000042      NHS Darlington CCG                             WHITE                     584
##  7 30Apr2018     00D               E38000047      NHS Durham Dales, Easington and Sedgefield CCG ASIAN                       3
##  8 30Apr2018     00D               E38000047      NHS Durham Dales, Easington and Sedgefield CCG BLACK                       0
##  9 30Apr2018     00D               E38000047      NHS Durham Dales, Easington and Sedgefield CCG MIXED                       0
## 10 30Apr2018     00D               E38000047      NHS Durham Dales, Easington and Sedgefield CCG NOT                      1405
## # … with 11,690 more rows
```
#### note that "NOT" means not defined

## 
###6. Mutate the Dementia_data set to not include the "NOT" (NOT DEFINED) since it is not contributing to our results dealing with specific Races.

```r
dementia_data<- dementia_data %>% 
  filter(Race!= "NOT")
dementia_data
```

```
## # A tibble: 9,750 x 6
##    Recorded_Date Organization_Code GEOGRAPHY_CODE Clinical_Commisioning_Groups                   Race  Dementia_Rate_Indicator
##    <chr>         <chr>             <chr>          <chr>                                          <chr>                   <dbl>
##  1 30Apr2018     00C               E38000042      NHS Darlington CCG                             ASIAN                       4
##  2 30Apr2018     00C               E38000042      NHS Darlington CCG                             BLACK                       0
##  3 30Apr2018     00C               E38000042      NHS Darlington CCG                             MIXED                       1
##  4 30Apr2018     00C               E38000042      NHS Darlington CCG                             OTHER                       2
##  5 30Apr2018     00C               E38000042      NHS Darlington CCG                             WHITE                     584
##  6 30Apr2018     00D               E38000047      NHS Durham Dales, Easington and Sedgefield CCG ASIAN                       3
##  7 30Apr2018     00D               E38000047      NHS Durham Dales, Easington and Sedgefield CCG BLACK                       0
##  8 30Apr2018     00D               E38000047      NHS Durham Dales, Easington and Sedgefield CCG MIXED                       0
##  9 30Apr2018     00D               E38000047      NHS Durham Dales, Easington and Sedgefield CCG OTHER                       2
## 10 30Apr2018     00D               E38000047      NHS Durham Dales, Easington and Sedgefield CCG WHITE                    1630
## # … with 9,740 more rows
```

## 
###7. Rearrange the data table to show decreasing order of Dementia Indicator. This will be a good indicator as to the highest race coming into clinics with Dementia diagnoses

```r
dementia_data <-dementia_data %>%
  arrange(desc(Dementia_Rate_Indicator))
dementia_data
```

```
## # A tibble: 9,750 x 6
##    Recorded_Date Organization_Code GEOGRAPHY_CODE Clinical_Commisioning_Groups Race  Dementia_Rate_Indicator
##    <chr>         <chr>             <chr>          <chr>                        <chr>                   <dbl>
##  1 31Jan2019     15F               E38000225      NHS Leeds CCG                WHITE                    3117
##  2 31Dec2018     15F               E38000225      NHS Leeds CCG                WHITE                    3095
##  3 30Nov2018     15F               E38000225      NHS Leeds CCG                WHITE                    3077
##  4 31Oct2018     15F               E38000225      NHS Leeds CCG                WHITE                    3027
##  5 30Sep2018     15F               E38000225      NHS Leeds CCG                WHITE                    2942
##  6 31Aug2018     15F               E38000225      NHS Leeds CCG                WHITE                    2787
##  7 31Jul2018     15F               E38000225      NHS Leeds CCG                WHITE                    2755
##  8 30Jun2018     15F               E38000225      NHS Leeds CCG                WHITE                    2695
##  9 31May2018     15F               E38000225      NHS Leeds CCG                WHITE                    2638
## 10 30Apr2018     15F               E38000225      NHS Leeds CCG                WHITE                    2585
## # … with 9,740 more rows
```
…
## 
###10.Find the Clincal Commisioning Group where the Dementia_Rate_Indicator is highest for each Race. 

```r
dementia_data %>% 
  group_by(Clinical_Commisioning_Groups) %>% 
  summarize(total= sum(Dementia_Rate_Indicator)) %>% 
  arrange(desc(total)) 
```

```
## # A tibble: 195 x 2
##    Clinical_Commisioning_Groups            total
##    <chr>                                   <dbl>
##  1 NHS Leeds CCG                           30913
##  2 NHS Birmingham and Solihull CCG         30070
##  3 NHS Mid Essex CCG                       22063
##  4 NHS Bedfordshire CCG                    21770
##  5 NHS Leicester City CCG                  20156
##  6 NHS Nene CCG                            19672
##  7 NHS West Leicestershire CCG             19443
##  8 NHS Sheffield CCG                       18965
##  9 NHS East and North Hertfordshire CCG    18891
## 10 NHS Cambridgeshire and Peterborough CCG 18449
## # … with 185 more rows
```
…
```r
CCG_data <- dementia_data %>% 
  select (Clinical_Commisioning_Groups, Race, Dementia_Rate_Indicator) %>% 
  filter(Clinical_Commisioning_Groups=="NHS Leeds CCG"|
           Clinical_Commisioning_Groups=="NHS Birmingham and Solihull CCG"| 
           Clinical_Commisioning_Groups=="NHS Mid Essex CCG"| 
           Clinical_Commisioning_Groups=="NHS Bedfordshire CCG" | 
           Clinical_Commisioning_Groups=="NHS Leicester City CCG")
CCG_data
```

```
## # A tibble: 250 x 3
##    Clinical_Commisioning_Groups Race  Dementia_Rate_Indicator
##    <chr>                        <chr>                   <dbl>
##  1 NHS Leeds CCG                WHITE                    3117
##  2 NHS Leeds CCG                WHITE                    3095
##  3 NHS Leeds CCG                WHITE                    3077
##  4 NHS Leeds CCG                WHITE                    3027
##  5 NHS Leeds CCG                WHITE                    2942
##  6 NHS Leeds CCG                WHITE                    2787
##  7 NHS Leeds CCG                WHITE                    2755
##  8 NHS Leeds CCG                WHITE                    2695
##  9 NHS Leeds CCG                WHITE                    2638
## 10 NHS Leeds CCG                WHITE                    2585
## # … with 240 more rows
```
…
